{"categories":[{"id":188,"parent_id":null,"name":"Root","seoname":"root","description":"","available_on":null,"set_code":"","product_type_id":null},{"id":189,"parent_id":188,"name":"Magic Singles","seoname":"magic_singles","description":"","available_on":null,"set_code":"","product_type_id":208},{"id":355,"parent_id":189,"name":"Eighth Edition","seoname":"eighth_edition","description":"","available_on":null,"set_code":"8E","product_type_id":208},{"id":356,"parent_id":189,"name":"Urza's Legacy","seoname":"urzas_legacy","description":"","available_on":null,"set_code":"UL","product_type_id":208},{"id":357,"parent_id":189,"name":"Urza's Destiny","seoname":"urzas_destiny","description":"","available_on":null,"set_code":"UD","product_type_id":208},{"id":358,"parent_id":189,"name":"Urza's Saga","seoname":"urzas_saga","description":"","available_on":null,"set_code":"US","product_type_id":208},{"id":359,"parent_id":189,"name":"Fifth Dawn","seoname":"fifth_dawn","description":"","available_on":null,"set_code":"FD","product_type_id":208},{"id":360,"parent_id":189,"name":"Darksteel","seoname":"darksteel","description":"","available_on":null,"set_code":"DS","product_type_id":208},{"id":361,"parent_id":189,"name":"Alpha","seoname":"alpha","description":"","available_on":null,"set_code":"A","product_type_id":208},{"id":362,"parent_id":189,"name":"Beta","seoname":"beta","description":"","available_on":null,"set_code":"B","product_type_id":208},{"id":363,"parent_id":189,"name":"Unlimited","seoname":"unlimited","description":"","available_on":null,"set_code":"UN","product_type_id":208},{"id":364,"parent_id":189,"name":"Revised Edition","seoname":"revised_edition","description":"","available_on":null,"set_code":"RV","product_type_id":208},{"id":365,"parent_id":189,"name":"Fourth Edition","seoname":"fourth_edition","description":"","available_on":null,"set_code":"4E","product_type_id":208},{"id":366,"parent_id":189,"name":"Fifth Edition","seoname":"fifth_edition","description":"","available_on":null,"set_code":"5E","product_type_id":208},{"id":367,"parent_id":189,"name":"Sixth Edition","seoname":"classic_sixth_edition","description":"","available_on":null,"set_code":"6E","product_type_id":208},{"id":368,"parent_id":189,"name":"Seventh Edition","seoname":"seventh_edition","description":"","available_on":null,"set_code":"7E","product_type_id":208},{"id":369,"parent_id":189,"name":"Beatdown Box Set","seoname":"beatdown_box_set","description":"","available_on":null,"set_code":"","product_type_id":208},{"id":370,"parent_id":189,"name":"Unglued","seoname":"unglued","description":"","available_on":null,"set_code":"UG","product_type_id":208},{"id":371,"parent_id":189,"name":"Starter 2000","seoname":"starter_2000","description":"","available_on":null,"set_code":"ST2","product_type_id":208},{"id":372,"parent_id":189,"name":"Starter 1999","seoname":"starter_1999","description":"","available_on":null,"set_code":"ST","product_type_id":208},{"id":373,"parent_id":189,"name":"Portal Three Kingdoms","seoname":"portal_three_kingdoms","description":"","available_on":null,"set_code":"P3K","product_type_id":208},{"id":374,"parent_id":189,"name":"Portal Second Age","seoname":"portal_second_age","description":"","available_on":null,"set_code":"PO2","product_type_id":208},{"id":375,"parent_id":189,"name":"Portal","seoname":"portal","description":"","available_on":null,"set_code":"PO","product_type_id":208},{"id":376,"parent_id":189,"name":"Chronicles","seoname":"chronicles","description":"","available_on":null,"set_code":"CH","product_type_id":208},{"id":377,"parent_id":189,"name":"Arabian Nights","seoname":"arabian_nights","description":"","available_on":null,"set_code":"AN","product_type_id":208},{"id":378,"parent_id":189,"name":"Antiquities","seoname":"antiquities","description":"","available_on":null,"set_code":"AQ","product_type_id":208},{"id":379,"parent_id":189,"name":"Legends","seoname":"legends","description":"","available_on":null,"set_code":"LG","product_type_id":208},{"id":380,"parent_id":189,"name":"The Dark","seoname":"the_dark","description":"","available_on":null,"set_code":"DK","product_type_id":208},{"id":381,"parent_id":189,"name":"Fallen Empires","seoname":"fallen_empires","description":"","available_on":null,"set_code":"FE","product_type_id":208},{"id":382,"parent_id":189,"name":"Ice Age","seoname":"ice_age","description":"","available_on":null,"set_code":"IA","product_type_id":208},{"id":383,"parent_id":189,"name":"Homelands","seoname":"homelands","description":"","available_on":null,"set_code":"HL","product_type_id":208},{"id":384,"parent_id":189,"name":"Alliances","seoname":"alliances","description":"","available_on":null,"set_code":"AL","product_type_id":208},{"id":385,"parent_id":189,"name":"Mirage","seoname":"mirage","description":"","available_on":null,"set_code":"MR","product_type_id":208},{"id":386,"parent_id":189,"name":"Visions","seoname":"visions","description":"","available_on":null,"set_code":"VI","product_type_id":208},{"id":387,"parent_id":189,"name":"Weatherlight","seoname":"weatherlight","description":"","available_on":null,"set_code":"WL","product_type_id":208},{"id":388,"parent_id":189,"name":"Tempest","seoname":"tempest","description":"","available_on":null,"set_code":"TP","product_type_id":208},{"id":389,"parent_id":189,"name":"Stronghold","seoname":"stronghold","description":"","available_on":null,"set_code":"SH","product_type_id":208},{"id":390,"parent_id":189,"name":"Exodus","seoname":"exodus","description":"","available_on":null,"set_code":"EX","product_type_id":208},{"id":391,"parent_id":189,"name":"Mercadian Masques","seoname":"mercadian_masques","description":"","available_on":null,"set_code":"MM","product_type_id":208},{"id":392,"parent_id":189,"name":"Nemesis","seoname":"nemesis","description":"","available_on":null,"set_code":"NE","product_type_id":208},{"id":393,"parent_id":189,"name":"Prophecy","seoname":"prophecy","description":"","available_on":null,"set_code":"PR","product_type_id":208},{"id":394,"parent_id":189,"name":"Invasion","seoname":"invasion","description":"","available_on":null,"set_code":"IN","product_type_id":208},{"id":395,"parent_id":189,"name":"Planeshift","seoname":"planeshift","description":"","available_on":null,"set_code":"PS","product_type_id":208},{"id":396,"parent_id":189,"name":"Apocalypse","seoname":"apocalypse","description":"","available_on":null,"set_code":"AP","product_type_id":208},{"id":397,"parent_id":189,"name":"Odyssey","seoname":"odyssey","description":"","available_on":null,"set_code":"OD","product_type_id":208},{"id":398,"parent_id":189,"name":"Torment","seoname":"torment","description":"","available_on":null,"set_code":"TR","product_type_id":208},{"id":399,"parent_id":189,"name":"Judgment","seoname":"judgment","description":"","available_on":null,"set_code":"JU","product_type_id":208},{"id":400,"parent_id":189,"name":"Onslaught","seoname":"onslaught","description":"","available_on":null,"set_code":"ON","product_type_id":208},{"id":401,"parent_id":189,"name":"Legions","seoname":"legions","description":"","available_on":null,"set_code":"LE","product_type_id":208},{"id":402,"parent_id":189,"name":"Scourge","seoname":"scourge","description":"","available_on":null,"set_code":"SC","product_type_id":208},{"id":403,"parent_id":189,"name":"Mirrodin","seoname":"mirrodin","description":"","available_on":null,"set_code":"MI","product_type_id":208},{"id":404,"parent_id":189,"name":"Unhinged","seoname":"unhinged","description":"","available_on":null,"set_code":"UH","product_type_id":208},{"id":405,"parent_id":189,"name":"Champions of Kamigawa","seoname":"champions_of_kamigawa","description":"","available_on":null,"set_code":"CK","product_type_id":208},{"id":406,"parent_id":189,"name":"Betrayers of Kamigawa","seoname":"betrayers_of_kamigawa","description":"","available_on":null,"set_code":"BK","product_type_id":208},{"id":407,"parent_id":189,"name":"Saviors of Kamigawa","seoname":"saviors_of_kamigawa","description":"","available_on":null,"set_code":"SK","product_type_id":208},{"id":408,"parent_id":189,"name":"Ninth Edition","seoname":"ninth_edition","description":"","available_on":null,"set_code":"9E","product_type_id":208},{"id":409,"parent_id":189,"name":"Ravnica","seoname":"ravnica","description":"","available_on":null,"set_code":"RA","product_type_id":208},{"id":410,"parent_id":189,"name":"Guildpact","seoname":"guildpact","description":"","available_on":null,"set_code":"GP","product_type_id":208},{"id":411,"parent_id":189,"name":"Dissension","seoname":"dissension","description":"","available_on":null,"set_code":"DI","product_type_id":208},{"id":412,"parent_id":189,"name":"Coldsnap","seoname":"coldsnap","description":"","available_on":null,"set_code":"CS","product_type_id":208},{"id":413,"parent_id":189,"name":"Time Spiral","seoname":"time_spiral","description":"","available_on":null,"set_code":"TSN","product_type_id":208},{"id":414,"parent_id":189,"name":"Planar Chaos","seoname":"planar_chaos","description":"","available_on":null,"set_code":"PC","product_type_id":208},{"id":415,"parent_id":189,"name":"Timeshifted","seoname":"timeshifted","description":"","available_on":null,"set_code":"TSS","product_type_id":208},{"id":424,"parent_id":189,"name":"Future Sight","seoname":"future-sight","description":"","available_on":null,"set_code":"FS","product_type_id":208},{"id":425,"parent_id":189,"name":"Tenth Edition","seoname":"tenth-edition","description":"","available_on":null,"set_code":"10E","product_type_id":208},{"id":426,"parent_id":188,"name":"Magic Sealed Products","seoname":"magic-sealed-products","description":"","available_on":null,"set_code":"","product_type_id":185},{"id":433,"parent_id":426,"name":"MTG Booster Boxes","seoname":"mtg-booster-boxes","description":"","available_on":null,"set_code":"","product_type_id":185},{"id":434,"parent_id":426,"name":"MTG Booster Packs","seoname":"mtg-booster-packs","description":"","available_on":null,"set_code":"","product_type_id":185},{"id":435,"parent_id":426,"name":"MTG Precon Theme Decks & Intro Packs","seoname":"mtg-precon-theme-decks--intro-packs","description":"","available_on":null,"set_code":"","product_type_id":185},{"id":438,"parent_id":426,"name":"MTG Fat Packs","seoname":"mtg-fat-packs","description":"","available_on":null,"set_code":"","product_type_id":185},{"id":440,"parent_id":426,"name":"MTG Starter Decks","seoname":"mtg-starter-decks","description":"","available_on":null,"set_code":"","product_type_id":185},{"id":442,"parent_id":189,"name":"Battle Royale","seoname":"battle-royale","description":"","available_on":null,"set_code":"","product_type_id":208},{"id":458,"parent_id":189,"name":"Arena Promos","seoname":"arena-promos","description":"","available_on":null,"set_code":"","product_type_id":208},{"id":459,"parent_id":189,"name":"FNM Promos","seoname":"fnm-promos","description":"","available_on":null,"set_code":"","product_type_id":208},{"id":460,"parent_id":189,"name":"JSS Promos","seoname":"jss-promos","description":"","available_on":null,"set_code":"","product_type_id":208},{"id":461,"parent_id":189,"name":"Player Rewards Promos","seoname":"player-rewards-promos","description":"","available_on":null,"set_code":"","product_type_id":208},{"id":462,"parent_id":189,"name":"Judge Promos","seoname":"judge-promos","description":"","available_on":null,"set_code":"","product_type_id":208},{"id":463,"parent_id":189,"name":"Pre-Release & Release Promos","seoname":"pre-release--release-promos","description":"","available_on":null,"set_code":"","product_type_id":208},{"id":464,"parent_id":189,"name":"Book Promos","seoname":"book-promos","description":"","available_on":null,"set_code":"","product_type_id":208},{"id":465,"parent_id":189,"name":"Apac Land Promos","seoname":"apac-land-promos","description":"","available_on":null,"set_code":"","product_type_id":208},{"id":466,"parent_id":189,"name":"Euro Land Promos","seoname":"euro-land-promos","description":"","available_on":null,"set_code":"","product_type_id":208},{"id":467,"parent_id":189,"name":"Guru Land Promos","seoname":"guru-land-promos","description":"","available_on":null,"set_code":"","product_type_id":208},{"id":468,"parent_id":189,"name":"Token Promos","seoname":"token-promos","description":"","available_on":null,"set_code":"","product_type_id":208},{"id":469,"parent_id":189,"name":"Unique & Misc. Promos","seoname":"unique--misc-promos","description":"","available_on":null,"set_code":"","product_type_id":208},{"id":470,"parent_id":189,"name":"Lorwyn","seoname":"lorwyn","description":"","available_on":null,"set_code":"LW","product_type_id":208},{"id":471,"parent_id":189,"name":"Morningtide","seoname":"morningtide","description":"","available_on":null,"set_code":"MT","product_type_id":208},{"id":472,"parent_id":189,"name":"Shadowmoor","seoname":"shadowmoor","description":"","available_on":null,"set_code":"SM","product_type_id":208},{"id":473,"parent_id":189,"name":"Eventide","seoname":"eventide","description":"","available_on":null,"set_code":"EN","product_type_id":208},{"id":474,"parent_id":189,"name":"Shards of Alara","seoname":"shards-of-alara","description":"","available_on":null,"set_code":"SA","product_type_id":208},{"id":475,"parent_id":189,"name":"Conflux","seoname":"conflux","description":"","available_on":null,"set_code":"CF","product_type_id":208},{"id":550,"parent_id":188,"name":"D&D Miniatures Singles","seoname":"dd-miniatures-singles","description":"","available_on":null,"set_code":"","product_type_id":210},{"id":551,"parent_id":550,"name":"Aberations","seoname":"aberations","description":"","available_on":null,"set_code":"","product_type_id":210},{"id":552,"parent_id":550,"name":"Against the Giants","seoname":"against-the-giants","description":"","available_on":null,"set_code":"","product_type_id":210},{"id":553,"parent_id":550,"name":"Angelfire","seoname":"angelfire","description":"","available_on":null,"set_code":"","product_type_id":210},{"id":554,"parent_id":550,"name":"Archfiends","seoname":"archfiends","description":"","available_on":null,"set_code":"","product_type_id":210},{"id":555,"parent_id":550,"name":"Blood War","seoname":"blood-war","description":"","available_on":null,"set_code":"","product_type_id":210},{"id":556,"parent_id":550,"name":"2 Player Starter","seoname":"2-player-starter","description":"","available_on":null,"set_code":"","product_type_id":210},{"id":557,"parent_id":550,"name":"Deathknell","seoname":"deathknell","description":"","available_on":null,"set_code":"","product_type_id":210},{"id":558,"parent_id":550,"name":"Desert of Desolation","seoname":"desert-of-desolation","description":"","available_on":null,"set_code":"","product_type_id":210},{"id":559,"parent_id":550,"name":"Dragoneye","seoname":"dragoneye","description":"","available_on":null,"set_code":"","product_type_id":210}],"pagination":{"current_page":1,"total_pages":22,"more_pages":true,"total_entries":2195,"per_page":100}}