{"product_types":[{"id":121,"name":"Pathfinder","default_weight":"2.0","amazon_search_index":"Toys","variant_dimensions":[{"name":"Condition","product_type_id":121,"default_option_id":94,"options":[{"value":"Brand New","code":"PATHBN"},{"value":"Used","code":"PATHU"}]}],"descriptors":[{"name":"Author","option_values":[],"store_overrideable":false},{"name":"Format","option_values":[],"store_overrideable":false},{"name":"ISBN","option_values":[],"store_overrideable":false},{"name":"Page Count","option_values":[],"store_overrideable":false}]},{"id":122,"name":"Horrorclix","default_weight":"0.5","amazon_search_index":"Toys","variant_dimensions":[{"name":"Condition","product_type_id":122,"default_option_id":null,"options":[{"value":"Brand New","code":"HRCNEW"},{"value":"Used","code":"HRCUSED"}]}],"descriptors":[{"name":"Experience","option_values":[],"store_overrideable":false},{"name":"Number","option_values":[],"store_overrideable":false},{"name":"Point Value","option_values":[],"store_overrideable":false},{"name":"Rarity","option_values":[],"store_overrideable":false}]},{"id":123,"name":"Misc Products for Mad Al","default_weight":null,"amazon_search_index":"Toys","variant_dimensions":[{"name":"Condtion","product_type_id":123,"default_option_id":null,"options":[{"value":"Brand New","code":"MPMANEW"},{"value":"Used","code":"MPMAUSED"}]}],"descriptors":[]},{"id":124,"name":"Miniatures Sealed Product","default_weight":"2.0","amazon_search_index":"Toys","variant_dimensions":[{"name":"Condition","product_type_id":124,"default_option_id":null,"options":[{"value":"Brand New","code":"MSPNEW"},{"value":"Used","code":"MSPUSED"}]}],"descriptors":[]},{"id":125,"name":"Dragon Ball CCG Sealed","default_weight":null,"amazon_search_index":"Toys","variant_dimensions":[{"name":"Condition","product_type_id":125,"default_option_id":753,"options":[{"value":"Brand New","code":"DBCNEW"},{"value":"Used","code":"DBCUSED"}]}],"descriptors":[]},{"id":126,"name":"Battle Spirits Sealed Product","default_weight":"3.0","amazon_search_index":"Toys","variant_dimensions":[{"name":"Condition","product_type_id":126,"default_option_id":null,"options":[{"value":"Brand New","code":"BSPNEW"},{"value":"Used","code":"BSPUSED"}]}],"descriptors":[]},{"id":127,"name":"Other Card Games - Sealed","default_weight":null,"amazon_search_index":"Toys","variant_dimensions":[{"name":"Condition","product_type_id":127,"default_option_id":null,"options":[{"value":"Brand New","code":"OCGSNEW"},{"value":"Used","code":"OCGSUSED"}]}],"descriptors":[]},{"id":128,"name":"Axis & Allies: Air Force Miniatures Singles","default_weight":"0.25","amazon_search_index":"Toys","variant_dimensions":[{"name":"Condition","product_type_id":128,"default_option_id":null,"options":[{"value":"Brand New","code":"AAFNEW"},{"value":"Used","code":"AAFUSED"}]}],"descriptors":[{"name":"Number","option_values":[],"store_overrideable":false}]},{"id":129,"name":"DVDs","default_weight":"0.25","amazon_search_index":"Toys","variant_dimensions":[{"name":"Condition","product_type_id":129,"default_option_id":null,"options":[{"value":"Brand New","code":"DVDNEW"},{"value":"Used","code":"DVDUSED"}]}],"descriptors":[]},{"id":130,"name":"Sportscards & Trading Cards","default_weight":null,"amazon_search_index":"Toys","variant_dimensions":[{"name":"Condition","product_type_id":130,"default_option_id":null,"options":[{"value":"Brand New","code":"SPTCNEW"},{"value":"Used","code":"SPTCUSED"}]}],"descriptors":[]},{"id":131,"name":"Toys","default_weight":"1.0","amazon_search_index":"Toys","variant_dimensions":[{"name":"Condition","product_type_id":131,"default_option_id":null,"options":[{"value":"Brand New","code":"TOYNEW"},{"value":"Used","code":"TOYUSED"}]}],"descriptors":[{"name":"Category","option_values":[],"store_overrideable":false},{"name":"DIAMD NO","option_values":[],"store_overrideable":false},{"name":"Publisher","option_values":[],"store_overrideable":false},{"name":"Ship Date","option_values":[],"store_overrideable":false},{"name":"STOCK NO","option_values":[],"store_overrideable":false}]},{"id":132,"name":"Video Game Accessories","default_weight":"1.0","amazon_search_index":"Toys","variant_dimensions":[{"name":"Condition","product_type_id":132,"default_option_id":null,"options":[{"value":"Brand New","code":"VGANEW"},{"value":"Used","code":"VGAUSED"}]}],"descriptors":[]},{"id":133,"name":"Kaijudo Sealed Product","default_weight":null,"amazon_search_index":"Toys","variant_dimensions":[{"name":"Condition","product_type_id":133,"default_option_id":96,"options":[{"value":"Brand New","code":"KAIBNEW"}]}],"descriptors":[]},{"id":134,"name":"Candy","default_weight":"0.5","amazon_search_index":"Toys","variant_dimensions":[{"name":"Condition","product_type_id":134,"default_option_id":null,"options":[{"value":"Brand New","code":"CDYNEW"}]}],"descriptors":[]},{"id":135,"name":"Marvel Super Hero Squad","default_weight":null,"amazon_search_index":"Toys","variant_dimensions":[{"name":"Condition","product_type_id":135,"default_option_id":null,"options":[{"value":"Brand New","code":"MSHSNEW"},{"value":"Used","code":"MSHSUSED"}]}],"descriptors":[]},{"id":136,"name":"Pathfinder Miniatures","default_weight":"0.6","amazon_search_index":"Toys","variant_dimensions":[{"name":"Condition","product_type_id":136,"default_option_id":null,"options":[{"value":"Brand New","code":"PFMNEW"},{"value":"Used","code":"PFMUSED"}]}],"descriptors":[{"name":"Number","option_values":[],"store_overrideable":false},{"name":"Rarity","option_values":[],"store_overrideable":false},{"name":"Size","option_values":[],"store_overrideable":false}]},{"id":137,"name":"Cardfight! Vanguard Sealed Product","default_weight":null,"amazon_search_index":"Toys","variant_dimensions":[{"name":"Condition","product_type_id":137,"default_option_id":null,"options":[{"value":"Brand New","code":"CFVBNEW"}]}],"descriptors":[]},{"id":138,"name":"Cthulhu Tech","default_weight":"1.0","amazon_search_index":"Toys","variant_dimensions":[{"name":"Condition","product_type_id":138,"default_option_id":null,"options":[{"value":"Brand New","code":"CTTNEW"},{"value":"Used","code":"CTTUSED"}]}],"descriptors":[]},{"id":139,"name":"Cardfight!! Vanguard","default_weight":"0.005","amazon_search_index":"Toys","variant_dimensions":[{"name":"Condition","product_type_id":139,"default_option_id":86,"options":[{"value":"Near Mint","code":"CFVNM"},{"value":"Lightly Played","code":"CFVLP"},{"value":"Moderately Played","code":"CFVMP"},{"value":"Heavily Played","code":"CFVHP"},{"value":"Damaged","code":"CFVDMG"}]},{"name":"Language","product_type_id":139,"default_option_id":91,"options":[{"value":"English","code":"English"}]}],"descriptors":[{"name":"Card Effect","option_values":[],"store_overrideable":false},{"name":"Card Number","option_values":[],"store_overrideable":false},{"name":"Clan","option_values":[],"store_overrideable":false},{"name":"Critical","option_values":[],"store_overrideable":false},{"name":"Grade / Skill","option_values":[],"store_overrideable":false},{"name":"Name","option_values":[],"store_overrideable":false},{"name":"Nation","option_values":[],"store_overrideable":false},{"name":"Power","option_values":[],"store_overrideable":false},{"name":"Race","option_values":[],"store_overrideable":false},{"name":"Rarity","option_values":["C","R","RR","RRR","SP","PR","TD"],"store_overrideable":false},{"name":"Shield","option_values":[],"store_overrideable":false},{"name":"Trigger","option_values":[],"store_overrideable":false},{"name":"Unit","option_values":[],"store_overrideable":false}]},{"id":140,"name":"Axis & Allies: War At Sea Miniatures","default_weight":"1.0","amazon_search_index":"Toys","variant_dimensions":[{"name":"Condition","product_type_id":140,"default_option_id":null,"options":[{"value":"Brand New","code":"AWSNEW"},{"value":"Used","code":"AWSUSED"}]}],"descriptors":[{"name":"Number","option_values":[],"store_overrideable":false},{"name":"Rarity","option_values":[],"store_overrideable":false}]}],"pagination":{"current_page":1,"total_pages":7,"more_pages":true,"total_entries":134,"per_page":20}}